@startuml

skinparam monochrome true
skinparam packageStyle rect
skinparam defaultFontName FG Virgil
skinparam shadowing false
skinparam linetype ortho

hide footbox



participant "ledger:Ledger" as Ledger
participant "transaction:Transaction" as Transaction

group sd getTransactionsOfAccountWithinPeriod from Ledger

-> Ledger : getTransactionsOfAccountWithinPeriod\n(account, initialDateTime, finalDateTime)
activate Ledger
Ledger -> "transactionsOfAccountWithinPeriod \nSet<Transaction>" as TAWP *: ( )
Ledger -> Ledger : getTransactionsWithinPeriod\n(initialDateTime, finalDateTime)
activate Ledger
Ledger -> "transactionsWithinPeriod \nSet<Transaction>" as TWP *: ( )
loop transaction : transactions
Ledger -> Transaction : isDateBetween (initialDateTime, finalDateTime)
activate Transaction
Transaction --> Ledger : b1
deactivate Transaction
opt b1 = true
Ledger ->TWP : add(transaction)
end
end
deactivate Ledger
loop transaction : transactionsWithinPeriod
Ledger -> Transaction : hasAccount(account)
activate Transaction
Transaction --> Ledger : b2
deactivate Transaction
opt b2 = true
Ledger -> TAWP : add(transaction)
end
end
<-- Ledger : transactionsOfAccountWithinPeriod
deactivate Ledger

end

@enduml