@startuml
skinparam monochrome true
skinparam packageStyle rect
skinparam defaultFontName FG Virgil
skinparam shadowing false
skinparam linetype ortho
hide footbox

participant ":Test" as test
participant  ":CreateAccountPersonController" as controller
participant "person:\nPerson" as person
participant "accounts \n:Accounts" as accounts
participant ":Set<Account>" as setaccounts
participant "account:\nAccount" as account
participant ":Denomination" as denomination
participant ":Description" as description


person -> accounts *: ()
accounts -> setaccounts *: ()
==ACT==
test -> controller : createAccountPerson\n(person, denomination, \ndescription )
activate controller
controller -> person: addAccount\n(denomination,\ndescription)

activate person
person -> accounts : addAccount\n(denomination,\ndescription)
activate accounts
accounts -> account *: (denomination,\ndescription)
activate account
account -> denomination *: (denomination)
activate denomination
denomination --> account
deactivate denomination
account -> description *: (description)
activate description
description --> account
deactivate description
account --> accounts
deactivate account
accounts -> setaccounts : add(account)
activate setaccounts
setaccounts --> accounts
deactivate setaccounts


accounts --> person :
deactivate accounts
person --> controller :
deactivate person
controller --> test : result
deactivate controller
==ASSERT==
test -> test : assertTrue

@enduml
