@startuml
skinparam monochrome true
skinparam packageStyle rect
skinparam defaultFontName FG Virgil
skinparam shadowing false
skinparam linetype ortho
hide footbox

participant ":Test" as test
participant ":CreateGroupTransactionController" as ctrl
participant "category:Category"
participant "debit:Account"
participant "credit:Account"
participant "group:Group" as group
participant "ledger:Ledger" as ledger
participant ":Set<Transaction>"
participant "transaction\n:Transaction"


group -> ledger * : ()
ledger -> ":Set<Transaction>"  *
==ACT==
test ->  ctrl : addTransaction(group, \namount, type, dateTime,\ndescription, category, \ndebit, credit)
activate ctrl
ctrl -> group : addTransaction (amount, type, dateTime, description, category, debit, credit)
activate group
group -> ledger : addTransaction\n(amount, type, \ndateTime,\ndescription, \ncategory, \ndebit, credit)
activate ledger
ledger -> "transaction\n:Transaction" * : (amount, type, dateTime, description, \ncategory, debit, credit)
":Set<Transaction>" -> ":Set<Transaction>" : add(transaction)
activate ":Set<Transaction>"
":Set<Transaction>" --> ledger : result
deactivate ":Set<Transaction>"
ledger --> group : result
deactivate ledger
group --> ctrl : result
deactivate group





ctrl --> "test" :result
deactivate ctrl
==ASSERT==
test -> test : assertTrue(result)

@enduml