@startuml

skinparam class {
	ArrowColor blue
	BorderColor RosyBrown
	BackgroundColor lightyellow
}

skinparam {
    packageStyle rect
    defaultFontName FG Virgil
    linetype ortho
    ArrowColor blue
    defaultFontSize 16
    LifeLineBorderColor blue
    ParticipantBorderColor blue
    ParticipantBackgroundColor transparent
    ActorFontColor blue
    }

title **US003 - As a system manager, I want to add people to the group - Class Diagram** \n

Class AddMemberToGroupRESTController << Controller >> {
-addMemberService : AddMemberToGroupService
+addMemberToGroup (info : AddMemberInfoDTO) : ResponseEntity<Object>
}

Interface IUS003_Service <<Interface>> {
+addMember (requestDTO : AddMemberRequestDTO) : Optional <MembersDTO>
}

Class AddMemberToGroupService << Service >>
Class AddMemberToGroupService implements IUS003_Service{
}

Class AddMemberAssembler <<Assembler>> {
+mapToDTO (group : Group) : MembersDTO
+mapToRequestDTO (newMemberID : String, groupID : String) : AddMemberRequestDTO
}

Class MembersDTO <<DTO>> {
-membersIDs : Set<String>
}

Class AddMemberRequestDTO <<DTO>> {
-newMemberID : String
-groupID : String
}

Class PersonRepository <<Repository>>
Class PersonRepository implements Repository {
}

Class GroupRepository <<Repository>>
Class GroupRepository implements Repository {
}

Interface Repository <<Interface>> {
-list : Set<Entity>
+findAll ( ) : Iterable<Entity>
+add (entity : Entity) : boolean
+findByID (entityID : EntityID) : Optional<Entity>
+contains (entity : Entity) : boolean
+containsByID (entityID : EntityID) : boolean
}

Class Person << Aggregate Root >> {
}

Class Group << Aggregate Root >> {
+addMemberID (personID : PersonID) : boolean
}

Class PersonID <<VO>> {
-personID : Long
}

Class GroupID <<VO>> {
-groupID : Long
}

Class PersonsIDs <<VO>> {
-personsIDs : Set<PersonID>
}

AddMemberToGroupRESTController --> "1" AddMemberToGroupService : has
AddMemberToGroupService ..> AddMemberAssembler : uses
AddMemberAssembler ..> MembersDTO : creates
AddMemberAssembler ..> AddMemberRequestDTO : creates
AddMemberToGroupService ..>  PersonRepository : uses
AddMemberToGroupService ..>  GroupRepository : uses
PersonRepository --> "*" Person : stores
Person --> "1" PersonID : is identified by
PersonsIDs -right-> "*" PersonID : stores
GroupRepository --> "*" Group : stores
Group -left-> "1" GroupID : is identified by
Group --> "1" PersonsIDs : has list of members
Group --> "1" PersonsIDs : has list of managers
@enduml