@startuml
skinparam defaultFontSize 16

skinparam sequence {
   ArrowColor blue
   LifeLineBorderColor blue
   ParticipantBorderColor blue
   ParticipantBackgroundColor transparent
   ParticipantFontSize 16
   ActorFontColor blue
   ActorFontSize 15
   ActorFontName blue }
hide footbox

title **US010 -  Como utilizador/membro de grupo, quero obter os movimentos de determinada conta num dado período.**\n

autonumber

participant "HTTPClient" as http
participant "SpringBoot" as spring
'participant "infoDTO:\nGetAccountTransactionsWithinPeriodInfoDTO" as infoDTO
participant  ": GetTransactionsForGroupAccountWithinPeriodRESTController" as controller
participant "GetTransactionsForGroupAccountWithinPeriodAssembler" as Assembler
participant "responseEntity\n:ResponseEntity" as responseE
'participant "requestDTO: \nGetTransactionsForGroupAccountWithinPeriodForGroupRequestDTO" as requestDTO
participant  ": GetTransactionsForGroupAccountWithinPeriodService" as service


http -> spring : HTTP Request (method : GET, \n URI : "people/groups/accounts/transactions\n?personID={personID}&groupID{groupID}&accountID={accountID}\n&startDate={startDate}&endDate={endDate}")
activate spring

'spring -> spring : deserialize (RequestBody)'

'spring -> infoDTO* :create (accountID, personID)


spring -> controller : getTransactionsForGroupAccountWithinPeriod \n(personID, groupID, accountID, startDate, finalDate)
activate controller
'note over requestDTO: requestDTO(personID : String, groupID : String, amount : String, dateTime : String, type : String,\n description : String, categoryDesignation : String, debitAccountID : String, creditAccountID : String)
controller -> Assembler : mapToRequestDTO\n (personID, groupID, accountID, startDate, finalDate)

activate Assembler
ref over Assembler: createRequestDTO
'Assembler -> requestDTO * : create\n(personID, groupID, infoDTO.getAmount(),\n infoDTO.getDateTime(), infoDTO.getType(),\n infoDTO.getDescription(),\n infoDTO.getCategoryDesignation(),\n infoDTO.getDebitAccountID(),\n infoDTO.getCreditAccountID()))
Assembler --> controller : requestDTO
deactivate Assembler
controller -> service : getTransactionsForGroupAccountWithinPeriod (requestDTO)
activate service

ref over service: getTransactionsForGroupAccountWithinPeriod

controller <-- service : responseDTO
deactivate service

note over Assembler: Hypermedia link to consult all group's transactions \n is created and added to the responseDTO before\n the ResponseEntity's creation

controller -> responseE *: (responseDTO, HTTPStatus.CREATED)

controller --> spring : responseEntity
deactivate controller

spring -> spring : serialize (responseDTO)

spring --> http : HTTP Response \n(ResponseBody, ResponseStatus)
deactivate spring

@enduml