@startuml

skinparam monochrome true
skinparam packageStyle rect
skinparam defaultFontName FG Virgil
skinparam shadowing false
skinparam linetype ortho

hide footbox

participant "ledger:Ledger" as Ledger
participant "transaction:Transaction" as Transaction

group sd getTransactionsWithinPeriod from Ledger

-> Ledger : getTransactionsWithinPeriod\n(initialDateTime, finalDateTime)
activate Ledger

Ledger -> "transactionsWithinPeriod \nSet<Transaction>" as TWP *: ( )
loop transaction : transactions
Ledger -> Transaction : isDateBetween (initialDateTime, finalDateTime)
activate Transaction
Transaction --> Ledger : b1
deactivate Transaction
opt b1 = true
Ledger ->TWP : add(transaction)
end
end

<-- Ledger : transactionsWithinPeriod
deactivate Ledger

end

@enduml