@startuml
skinparam defaultFontSize 16

skinparam sequence {
   ArrowColor blue
   LifeLineBorderColor blue
   ParticipantBorderColor blue
   ParticipantBackgroundColor transparent
   ParticipantFontSize 16
   ActorFontColor blue
   ActorFontSize 15
   ActorFontName blue }
hide footbox

autonumber

participant ":Test" as Test
participant ":ContainsPersonController" as Controller
participant "containsPersonService\n:ContainsPersonService" as Service
participant "personRepository\n:PersonRepository" as PersonRepo
participant "Assembler" as assembler
participant "containsPersonRequestDTO\n:ContainsPersonRequestDTO" as findPersonRequestDTO
participant "personID\n:PersonID" as PersonID

activate Test
Test -> PersonRepo* : ( )
Test -> Service* : (personRepository)
Test -> Controller* : (containsPersonService)

==ACT==
Test -> Controller : containsPerson \n("personID")

activate Controller
Controller -> assembler : mapToRequestDTO \n("personID")
activate assembler
assembler -> findPersonRequestDTO* : ("personID")
assembler --> Controller : containsPersonRequestDTO
deactivate assembler

Controller -> Service : containsPerson \n(containsPersonRequestDTO)
activate Service
Service -> findPersonRequestDTO : getPersonID ( )

activate findPersonRequestDTO
findPersonRequestDTO --> Service : "personID"
deactivate findPersonRequestDTO

Service -> PersonID* : ("personID")

Service -> PersonRepo : containsByID \n(personID)
activate PersonRepo
PersonRepo --> Service : personExists
deactivate PersonRepo

Service --> Controller : personExists
deactivate Service

Controller --> Test : personExists
deactivate Controller

==ASSERT==
Test -> Test : assertEquals \n(expected, personExists)

@enduml