@startuml

skinparam defaultFontSize 16

skinparam sequence {
   ArrowColor blue
   LifeLineBorderColor blue
   ParticipantBorderColor blue
   ParticipantBackgroundColor transparent
   ParticipantFontSize 16
   ActorFontColor blue
   ActorFontSize 15
   ActorFontName blue }
'hide footbox

autonumber
title US005.1 - As manager of a group, I want to create a category and associate it to the group - Sequence Diagram

participant ":Test" as test
participant ":CreateCategoryForGroupController" as controller
participant "createCategoryService\n:CreateCategoryForGroupService" as serv
participant "groupRepo\n:GroupRepository" as groupRepo
participant "group :\nGroup" as grupo
participant ":Categories" as categories
participant "category \n:Category" as category
'participant ":HashSet<Category>" as setcat
participant ":CreateCategory\nForGroupAssembler" as assembler
participant "requestDTO\n:CreateCategoryForGroupRequestDTO" as requestDTO
participant "groupID \n:GroupID" as groupID
participant "categoriesDTO\n:CreateCategoryForGroupDTO" as groupdto


activate test
test -> serv* : (groupRepo)


==ACT==
test -> controller* : (createCategoryService)
test -> controller : createCategoryForGroup \n("groupID", "designation")

activate controller

controller -> assembler : mapToRequestDTO\n("groupID", "designation")
activate assembler
assembler -> requestDTO* : ("groupID", "designation")
assembler --> controller : requestDTO
deactivate assembler
controller -> serv : createCategoryForGroup \n(requestDTO)

activate serv
serv -> requestDTO : getGroupID( )
activate requestDTO
requestDTO --> serv : "groupID"
deactivate requestDTO
serv -> groupID* : ("groupID")

serv -> groupRepo : containsByID (groupID)


activate groupRepo
groupRepo --> serv : exists
deactivate groupRepo

opt exists == true

serv -> groupRepo : findByID (groupID)
activate groupRepo
groupRepo --> serv : group
deactivate groupRepo
serv -> requestDTO : getDesignation()
activate requestDTO
requestDTO --> serv : "designation"
deactivate requestDTO


serv -> grupo: addCategory ("designation")

activate grupo
grupo -> categories : addCategory \n("designation")
activate categories
categories -> category *: ("designation")



categories -> categories : add (category)


categories --> grupo : result

deactivate categories
grupo --> serv : result
deactivate grupo

serv -> assembler : mapToDTO (group)
activate assembler

assembler -> groupdto* : ()
assembler --> serv : categoriesDTO
deactivate assembler
end

serv --> controller : categoriesDTO
deactivate serv
controller --> test : categoriesDTO
deactivate controller

==ASSERT==
test -> test : assertEquals(expected, categoriesDTO)

@enduml