@startuml
skinparam monochrome true
skinparam packageStyle rect
skinparam defaultFontName FG Virgil
skinparam shadowing false
skinparam linetype ortho
hide footbox

participant "ledger:Ledger" as Ledger
participant "ledgerTransactions\n:Set<Transaction>" as list
participant "transaction\n:Transaction" as Transaction

group SD getBalanceWithinPeriod
-> Ledger : getBalanceWithinPeriod\n(period)
activate Ledger
Ledger -> Ledger : getTransactionsWithinPeriod\n(period)
activate Ledger
Ledger -> "transactionsWithinPeriod \n:Set<Transaction>" as TWP *: ( )
loop transaction : transactions
Ledger -> Transaction : isDateBetween (period)
activate Transaction
Transaction --> Ledger : b1
deactivate Transaction
opt b1 = true
Ledger ->TWP : add(transaction)
end
deactivate Ledger
end
loop transaction : transactions
Ledger -> Transaction : getFactoredAmount()
activate Transaction
Transaction --> Ledger : factoredAmount
deactivate Transaction
Ledger --> Ledger : balance += factoredAmount
end
<-- Ledger : balance
deactivate Ledger
end
@enduml
