@startuml
skinparam monochrome true
skinparam packageStyle rect
skinparam defaultFontName FG Virgil
skinparam shadowing false
skinparam linetype ortho

class Groups {
+ addGroup (description : String,\n creationDate : String,\n creator : Person)
}
class Group {
+ Group()
}

class Person {
+Person()
}
class Description {
- description : String
}
class CreationDate {
- creationDate : String
}

Groups -- "  *  "Group : containsGroups
Group --> "                  has 1 "  Description
Group --> "     has 1 " CreationDate
Group -right-> " 1  " Person : hasCreator



@enduml

